<?xml version="1.0" encoding="utf-8"?>
<!-- Generator: Adobe Illustrator 23.0.2, SVG Export Plug-In . SVG Version: 6.00 Build 0)  -->
<svg version="1.1" id="Layer_1" xmlns="http://www.w3.org/2000/svg" xmlns:xlink="http://www.w3.org/1999/xlink" x="0px" y="0px"
	 width="800px" height="400px" viewBox="0 0 800 400" style="enable-background:new 0 0 800 400;" xml:space="preserve">
<style type="text/css">
	.st0{fill:none;}
	.st1{fill:#FAFAFA;stroke:#FFFFFF;stroke-width:0.1;}
	.st2{fill:#FFFFFF;stroke:#FFFFFF;stroke-width:0.1;}
	.st3{fill:#F5F5F5;stroke:#FFFFFF;stroke-width:0.1;}
	.st4{fill:#F0F0F0;stroke:#FFFFFF;stroke-width:0.1;}
	.st5{fill:#EBEBEB;stroke:#FFFFFF;stroke-width:0.1;}
	.st6{fill:#E5E5E5;stroke:#FFFFFF;stroke-width:0.1;}
	.st7{fill:#E0E0E0;stroke:#FFFFFF;stroke-width:0.1;}
	.st8{fill:#BBAA77;stroke:#FFFFFF;stroke-width:0.1;}
	.st9{fill:#FFFFFF;}
	.st10{fill:url(#SVGID_1_);}
	.st11{fill:url(#SVGID_2_);}
	.st12{fill:url(#SVGID_3_);}
	.st13{fill:url(#SVGID_4_);}
	.st14{fill:url(#SVGID_5_);}
	.st15{fill:url(#SVGID_6_);}
</style>
<pattern  y="25" width="2" height="2" patternUnits="userSpaceOnUse" id="a" viewBox="0.1 -2 2 2" style="overflow:visible;">
	<g>
		<rect x="0.1" y="-2" class="st0" width="2" height="2"/>
		<g>
			<rect x="0.1" y="-1" class="st1" width="1" height="1"/>
			<rect x="1" y="-2" class="st2" width="1" height="1"/>
			<rect x="0.1" y="-2" class="st3" width="1" height="1"/>
			<rect x="1" y="-1" class="st4" width="1" height="1"/>
		</g>
	</g>
</pattern>
<pattern  y="25" width="5" height="11" patternUnits="userSpaceOnUse" id="b" viewBox="0.1 -11.1 5 11" style="overflow:visible;">
	<g>
		<rect x="0.1" y="-11.1" class="st0" width="5" height="11"/>
		<g>
			<g>
				<rect id="s_1_" x="2" y="-1" class="st5" width="1" height="1"/>
			</g>
			<g>
				<rect x="4.1" y="-2" class="st5" width="1" height="1"/>
			</g>
			<g>
				<rect x="1" y="-3" class="st5" width="1" height="1"/>
			</g>
			<g>
				<rect x="2" y="-5.1" class="st5" width="1" height="1"/>
			</g>
			<g>
				<rect x="4.1" y="-7.1" class="st5" width="1" height="1"/>
			</g>
			<g>
				<rect x="0.1" y="-9.1" class="st5" width="1" height="1"/>
			</g>
			<g>
				<rect x="3" y="-10.1" class="st5" width="1" height="1"/>
			</g>
		</g>
	</g>
</pattern>
<pattern  y="25" width="7" height="7" patternUnits="userSpaceOnUse" id="c" viewBox="0.1 -7 7 7" style="overflow:visible;">
	<g>
		<rect x="0.1" y="-7" class="st0" width="7" height="7"/>
		<g>
			<g>
				<rect id="s_2_" x="1" y="-2" class="st6" width="1" height="1"/>
			</g>
			<g>
				<rect x="3" y="-5" class="st6" width="1" height="1"/>
			</g>
			<g>
				<rect x="5.1" y="-7" class="st6" width="1" height="1"/>
			</g>
			<g>
				<rect x="0.1" y="-4" class="st6" width="1" height="1"/>
			</g>
		</g>
	</g>
</pattern>
<pattern  y="25" width="11" height="5" patternUnits="userSpaceOnUse" id="d" viewBox="0.1 -5.1 11 5" style="overflow:visible;">
	<g>
		<rect x="0.1" y="-5.1" class="st0" width="11" height="5"/>
		<g>
			<g>
				<rect id="s_3_" x="1" y="-2" class="st2" width="1" height="1"/>
			</g>
			<g>
				<rect x="6.1" y="-4.1" class="st2" width="1" height="1"/>
			</g>
			<g>
				<rect x="8.1" y="-3" class="st2" width="1" height="1"/>
			</g>
			<g>
				<rect x="3" y="-1" class="st2" width="1" height="1"/>
			</g>
			<g>
				<rect x="0.1" y="-4.1" class="st2" width="1" height="1"/>
			</g>
		</g>
		<g>
			<g>
				<rect x="8.1" y="-4.1" class="st7" width="1" height="1"/>
			</g>
			<g>
				<rect x="4.1" y="-3" class="st7" width="1" height="1"/>
			</g>
			<g>
				<rect x="5.1" y="-5.1" class="st7" width="1" height="1"/>
			</g>
			<g>
				<rect x="10.1" y="-1" class="st7" width="1" height="1"/>
			</g>
		</g>
	</g>
</pattern>
<pattern  y="25" width="47" height="23" patternUnits="userSpaceOnUse" id="e" viewBox="0 -23 47 23" style="overflow:visible;">
	<g>
		<rect y="-23" class="st0" width="47" height="23"/>
		<g>
			<g>
				<rect id="s_4_" x="2" y="-6" class="st8" width="1" height="1"/>
			</g>
			<g>
				<rect x="23" y="-14" class="st8" width="1" height="1"/>
			</g>
			<g>
				<rect x="4" y="-19" class="st8" width="1" height="1"/>
			</g>
			<g>
				<rect x="35" y="-10" class="st8" width="1" height="1"/>
			</g>
		</g>
	</g>
</pattern>
<pattern  y="25" width="61" height="31" patternUnits="userSpaceOnUse" id="f" viewBox="0 -31 61 31" style="overflow:visible;">
	<g>
		<rect y="-31" class="st0" width="61" height="31"/>
		<g>
			<g>
				<rect id="s_5_" x="16" y="-1" class="st8" width="1" height="1"/>
			</g>
			<g>
				<rect x="13" y="-23" class="st8" width="1" height="1"/>
			</g>
			<g>
				<rect x="44" y="-16" class="st8" width="1" height="1"/>
			</g>
			<g>
				<rect x="12" y="-12.1" class="st8" width="1" height="1"/>
			</g>
		</g>
	</g>
</pattern>
<rect class="st9" width="800" height="400"/>
<pattern  id="SVGID_1_" xlink:href="#a" patternTransform="matrix(16 0 0 -16 122463.25 -129156.8516)">
</pattern>
<rect class="st10" width="800" height="400"/>
<pattern  id="SVGID_2_" xlink:href="#b" patternTransform="matrix(16 0 0 -16 122543.25 -129437.8516)">
</pattern>
<rect class="st11" width="800" height="400"/>
<pattern  id="SVGID_3_" xlink:href="#c" patternTransform="matrix(16 0 0 -16 122383.25 -129257)">
</pattern>
<rect class="st12" width="800" height="400"/>
<pattern  id="SVGID_4_" xlink:href="#d" patternTransform="matrix(16 0 0 -16 122367.25 -129191.8516)">
</pattern>
<rect class="st13" width="800" height="400"/>
<pattern  id="SVGID_5_" xlink:href="#e" patternTransform="matrix(16 0 0 -16 122304 -129305)">
</pattern>
<rect class="st14" width="800" height="400"/>
<pattern  id="SVGID_6_" xlink:href="#f" patternTransform="matrix(16 0 0 -16 122032 -129985.8516)">
</pattern>
<rect class="st15" width="800" height="400"/>
</svg>
